{
    "coming": [
        {
            "id": 1217023,
            "img": "http://p0.meituan.net/w.h/movie/120f2e1e6b0a67449e31107a598c5c911203737.jpg",
            "wish": 811666,
            "wishst": 0,
            "nm": "唐人街探案3",
            "comingTitle": "2020年1月25日 周六"
        },
        {
            "id": 1211269,
            "img": "http://p1.meituan.net/w.h/moviemachine/33ee262eb7bbeba3b7f5ffb2692e2073405334.jpg",
            "wish": 275082,
            "wishst": 0,
            "nm": "姜子牙",
            "comingTitle": "2020年1月25日 周六"
        },
        {
            "id": 1190122,
            "img": "http://p0.meituan.net/w.h/movie/4bfb08bfe0b8dd20776c6efc4015de6d995158.jpg",
            "wish": 249516,
            "wishst": 0,
            "nm": "叶问4",
            "comingTitle": "12月20日 周五"
        },
        {
            "id": 461076,
            "img": "http://p0.meituan.net/w.h/moviemachine/7c0b961c49c2cc1a5d1ed4615beb8dbf6695755.jpg",
            "wish": 173207,
            "wishst": 0,
            "nm": "紧急救援",
            "comingTitle": "2020年1月25日 周六"
        },
        {
            "id": 1250696,
            "img": "http://p1.meituan.net/w.h/movie/6573aca4bed234dc22d44a0f2d419ac9477072.jpg",
            "wish": 119941,
            "wishst": 0,
            "nm": "囧妈",
            "comingTitle": "2020年1月25日 周六"
        },
        {
            "id": 1217123,
            "img": "http://p0.meituan.net/w.h/movie/7176eb3a1e76980ec711d2c8dc77dd52297157.jpg",
            "wish": 104204,
            "wishst": 0,
            "nm": "中国女排",
            "comingTitle": "2020年1月25日 周六"
        },
        {
            "id": 1279731,
            "img": "http://p1.meituan.net/w.h/movie/4ce166a974522e45a39f8401433be6dd3453394.jpg",
            "wish": 100973,
            "wishst": 0,
            "nm": "宠爱",
            "comingTitle": "12月31日 周二"
        },
        {
            "id": 1237938,
            "img": "http://p1.meituan.net/w.h/movie/4abee68965dda5194d0c7e7e20111dc914241667.jpg",
            "wish": 58824,
            "wishst": 0,
            "nm": "凌晨两点半2",
            "comingTitle": "12月20日 周五"
        },
        {
            "id": 1216053,
            "img": "http://p1.meituan.net/w.h/movie/231d8a73010ed86b97e6dd960ff15259759606.jpg",
            "wish": 41936,
            "wishst": 0,
            "nm": "急先锋",
            "comingTitle": "2020年1月25日 周六"
        },
        {
            "id": 342867,
            "img": "http://p0.meituan.net/w.h/movie/85a5717821e7b4a848533c3494cc06202048234.jpg",
            "wish": 39233,
            "wishst": 0,
            "nm": "源·彩虹",
            "comingTitle": "2020年1月25日 周六"
        },
        {
            "id": 1298938,
            "img": "http://p0.meituan.net/w.h/movie/d0d282b9ae5f4428df19efdee35d224d3285431.jpg",
            "wish": 18764,
            "wishst": 0,
            "nm": "熊出没·狂野大陆",
            "comingTitle": "2020年1月25日 周六"
        },
        {
            "id": 489894,
            "img": "http://p1.meituan.net/w.h/movie/b3010743c85cf9451762d47cf172a4956109708.jpg",
            "wish": 18609,
            "wishst": 0,
            "nm": "我在时间尽头等你",
            "comingTitle": "2020年2月14日 周五"
        },
        {
            "id": 1280015,
            "img": "http://p1.meituan.net/w.h/movie/523795e01a659637d7476ae0d05ad3442558915.jpg",
            "wish": 16191,
            "wishst": 0,
            "nm": "武圣关公",
            "comingTitle": "2020年1月11日 周六"
        },
        {
            "id": 1297995,
            "img": "http://p0.meituan.net/w.h/movie/aa10dea915717372fc0b36bc75a4a5a92888124.jpg",
            "wish": 16035,
            "wishst": 0,
            "nm": "只有芸知道",
            "comingTitle": "12月20日 周五"
        },
        {
            "id": 1282454,
            "img": "http://p1.meituan.net/w.h/movie/258bfc30cec1e20070697ab090dfcc052620540.jpg",
            "wish": 15829,
            "wishst": 0,
            "nm": "血鲨",
            "comingTitle": "2020年2月14日 周五"
        },
        {
            "id": 1294417,
            "img": "http://p0.meituan.net/w.h/movie/582d57e86924b47279c001dca5a12adb5773823.png",
            "wish": 14528,
            "wishst": 0,
            "nm": "危险记忆",
            "comingTitle": "12月27日 周五"
        },
        {
            "id": 1216185,
            "img": "http://p0.meituan.net/w.h/movie/7d69fdf15daccc2aa24d6f64ba054b321653880.png",
            "wish": 14301,
            "wishst": 0,
            "nm": "利刃破冰",
            "comingTitle": "12月25日 周三"
        },
        {
            "id": 346409,
            "img": "http://p0.meituan.net/w.h/movie/2b89da4de407736aaf37f3f57a5de6f81446242.jpg",
            "wish": 13945,
            "wishst": 0,
            "nm": "尼斯大冒险",
            "comingTitle": "12月28日 周六"
        },
        {
            "id": 1226583,
            "img": "http://p0.meituan.net/w.h/movie/27382d39b20aaa267c4817c3c86b6a843428263.jpg",
            "wish": 12466,
            "wishst": 0,
            "nm": "征途",
            "comingTitle": "2020年1月1日 周三"
        },
        {
            "id": 1298349,
            "img": "http://p0.meituan.net/w.h/movie/fe028a081b8c6b1e0d6400e0f0da74151329053.jpg",
            "wish": 11123,
            "wishst": 0,
            "nm": "贝肯熊2：金牌特工",
            "comingTitle": "2020年2月8日 周六"
        }
    ],
    "paging": {
        "hasMore": true,
        "limit": 10,
        "offset": 0,
        "total": 126
    }
}